1,	   1000000,    1000000, -860719208,  2.297e+09,  2.297e+09,  2.297e+09,  0.000e+00,    1000000,    1000000,    1000000,          0, 3.31, 316.70, 1048.25
2,	   1000000,    1000001, 1792658033,  2.721e+09,  2.721e+09,  2.721e+09,  1.539e+03,     499999,     500001,     500000,          1, 3.11, 316.20, 984.33
3,	   1000000,    1000002, -579887179,  3.038e+09,  3.038e+09,  3.038e+09,  5.426e+03,     333333,     333334,     333333,          0, 3.28, 324.10, 1063.66
4,	   1000000,    1000003, -1547063978,  3.006e+09,  3.006e+09,  3.006e+09,  7.704e+03,     249999,     250001,     250000,          0, 3.57, 323.60, 1155.14
5,	   1000000,    1000004, 1802992689,  3.680e+09,  3.680e+09,  3.680e+09,  9.113e+03,     199999,     200001,     200000,          0, 4.21, 319.50, 1345.06
6,	   1000000,    1000005, -2070586497,  3.660e+09,  3.660e+09,  3.660e+09,  1.374e+04,     166666,     166669,     166666,          1, 3.16, 319.60, 1010.44
7,	   1000000,    1000006, -2142260862,  3.647e+09,  3.647e+09,  3.647e+09,  2.044e+04,     142856,     142858,     142857,          0, 4.07, 322.80, 1315.22
8,	   1000000,    1000007, 1536078622,  3.634e+09,  3.634e+09,  3.634e+09,  2.117e+04,     124999,     125001,     125000,          0, 8.04, 308.10, 2475.60
12,	   1000000,    1000011, -2146514466,  3.682e+09,  3.682e+09,  3.682e+09,  1.976e+04,      83332,      83336,      83333,          1, 3.93, 330.40, 1299.34
16,	   1000000,    1000015, -1537045477,  3.698e+09,  3.698e+09,  3.698e+09,  3.916e+04,      62499,      62501,      62500,          0, 7.89, 312.80, 2466.52
20,	   1000000,    1000019, -1195087974,  3.607e+09,  3.607e+09,  3.607e+09,  3.627e+04,      49999,      50002,      50000,          0, 3.80, 352.20, 1337.60
24,	   1000000,    1000023,  741240157,  3.802e+09,  3.802e+09,  3.802e+09,  3.970e+04,      41666,      41668,      41666,          0, 7.74, 317.20, 2455.38
28,	   1000000,    1000027, -456433986,  3.823e+09,  3.823e+09,  3.823e+09,  4.033e+04,      35714,      35716,      35714,          0, 3.80, 358.70, 1364.69
32,	   1000000,    1000031, -508412750,  3.849e+09,  3.849e+09,  3.849e+09,  5.398e+04,      31249,      31251,      31250,          0, 7.88, 321.00, 2530.60
36,	   1000000,    1000035, -613565079,  4.077e+09,  4.077e+09,  4.077e+09,  6.198e+04,      27777,      27780,      27777,          0, 4.13, 380.60, 1572.38
40,	   1000000,    1000039, -1607993857,  3.940e+09,  3.940e+09,  3.940e+09,  7.958e+04,      24999,      25002,      25000,          0, 8.52, 326.40, 2779.84
44,	   1000000,    1000043, -1886142991,  3.867e+09,  3.867e+09,  3.867e+09,  5.335e+04,      22727,      22729,      22727,          0, 2.68, 387.60, 1038.94
48,	   1000000,    1000047,  461207709,  3.937e+09,  3.937e+09,  3.937e+09,  7.863e+04,      20833,      20835,      20833,          0, 8.85, 330.50, 2926.00
52,	   1000000,    1000051,  410547319,  3.852e+09,  3.852e+09,  3.852e+09,  9.829e+04,      19230,      19232,      19230,          0, 3.02, 407.30, 1229.17
56,	   1000000,    1000055, 2011108556,  3.955e+09,  3.955e+09,  3.955e+09,  8.398e+04,      17856,      17859,      17857,          0, 4.21, 408.70, 1718.82
60,	   1000000,    1000059, -1828282190,  3.933e+09,  3.933e+09,  3.933e+09,  1.274e+05,      16666,      16668,      16666,          0, 3.43, 416.20, 1425.57
64,	   1000000,    1000063,  231616984,  3.959e+09,  3.959e+09,  3.959e+09,  1.337e+05,      15624,      15627,      15625,          0, 7.69, 339.70, 2613.12
